{
    "app_categories": {
        "Connectivity": "Povezivanje",
        "Development": "Razvoj",
        "Games": "Igre",
        "Graphics": "Grafika",
        "Internet": "Internet",
        "Money": "Novac",
        "Multimedia": "Multimedija",
        "Navigation": "Navigacija",
        "Phone & SMS": "Telefon i SMS",
        "Reading": "Čitanje",
        "Science & Education": "Znanost i edukacija",
        "Security": "Sigurnost",
        "Sports & Health": "Sport i zdravlje",
        "System": "Sustav",
        "Theming": "Teme",
        "Time": "Vrijeme",
        "Writing": "Pisanje"
    }
}
