{
    "antifeatures": {
        "Ads": "Aquesta aplicació conté publicitat",
        "DisabledAlgorithm": "Aquesta aplicació té una signatura de seguretat dèbil",
        "KnownVuln": "Aquesta aplicació conté una vulnerabilitat de seguretat coneguda",
        "NoSourceSince": "El codi font ja no està disponible, no es pot actualitzar",
        "NonFreeAdd": "Aquesta aplicació promou complements no lliures",
        "NonFreeAssets": "Aquesta aplicació conté recursos no lliures",
        "NonFreeDep": "Aquesta aplicació depèn d'altres aplicacions no lliures",
        "NonFreeNet": "Aquesta aplicació promou serveis de xarxa no lliures",
        "Tracking": "Aquesta aplicació rastreja i informa de la teva activitat",
        "UpstreamNonFree": "El codi font original no és totalment lliure"
    },
    "app_categories": {
        "Connectivity": "Connectivitat",
        "Development": "Desenvolupament",
        "Games": "Jocs",
        "Graphics": "Gràfics",
        "Internet": "Internet",
        "Money": "Diners",
        "Multimedia": "Multimèdia",
        "Navigation": "Navegació",
        "Phone & SMS": "Telèfon i missatgeria",
        "Reading": "Lectura",
        "Science & Education": "Ciència i educació",
        "Security": "Seguretat",
        "Sports & Health": "Esports i salut",
        "System": "Sistema",
        "Theming": "Temes",
        "Time": "Hora, gestió del temps",
        "Writing": "Escriptura",
        "show_all_packages": "Mostra els %d paquets"
    },
    "index": {
        "download_fdroid": "Descarrega F-Droid",
        "gpg_signature": "Signatura PGP",
        "introduction": "F-Droid és un catàleg instal·lable d'aplicacions de programari lliure i codi obert (FOSS, \"Free and Open Source Software\") per a Android. El client en facilita la navegació, la instal·lació i el seguiment de les actualitzacions en el teu dispositiu.",
        "screenshot": "Captura de pantalla de F-Droid per a Android",
        "title": "Què és F-Droid?"
    },
    "navigation": {
        "about": "Informació",
        "apps": "Aplicacions",
        "contribute": "Contribueix",
        "documentation": "Documents",
        "edit_on_gitlab": "Edita a GitLab",
        "forum": "Fòrum",
        "issues": "Incidències",
        "news": "Notícies",
        "translate_on_weblate": "Tradueix a Weblate"
    },
    "package": {
        "added_on": "S'ha afegit el {{ package_added_date }}",
        "anti_features": "Funcionalitats no desitjades",
        "anti_features_warning": "Aquesta aplicació té característiques potencialment no desitjables.",
        "author": "Autor",
        "build_metadata": "Genera metadades",
        "changelog": "Historial de canvis",
        "donate": "Dóna",
        "download": "Descarrega {{ file_extension }}",
        "flattr": "Flattr",
        "gpg_signature": "Signatura PGP (privadesa bastant bona)",
        "issue_tracker": "Seguiment d'incidències",
        "liberapay": "Liberapay",
        "license": "Llicència",
        "minimum_android_version": "Aquesta versió requereix una versió d'Android {{ android_version }} o superior.",
        "new_in_version": "Novetats de la versió {{ latest_version }}",
        "opencollective": "Open Collective",
        "package_icon_alt": "icona del paquet",
        "package_screenshot_alt": "captura de pantalla",
        "packages": "Paquets",
        "permissions": "Permisos",
        "signed_by_developer": "S'ha compilat i firmat pel desenvolupador original.",
        "source_code": "Codi font",
        "suggest_downloading_via_fdroid": "Tot i que les descàrregues APK estan disponibles més avall perquè puguis escollir, hauries d'estar al cas que al instal·lar-les d'aquesta manera no rebràs les notificacions de les actualitzacions, i és una manera de descàrrega menys segura. Et recomanem que instal·lis i utilitzis el client de F-Droid.",
        "suggested": "suggerit",
        "technical_info": "Informació tècnica",
        "translation": "Traducció",
        "version_info": "<b>Versió {{ package_version }}</b> ({{ package_version_code }})",
        "website": "Lloc web"
    },
    "permissions": {
        "permdesc_acceptHandovers": "Permet que l'aplicació continuï una trucada que s'ha iniciat en una altra aplicació.",
        "permdesc_accessBackgroundLocation": "Si es concedeix aquest permís a més de l'accés a la ubicació exacta o aproximada, l'aplicació podrà tenir accés a la ubicació mentre s'executa en segon pla.",
        "permdesc_accessCoarseLocation": "Aquesta aplicació pot accedir a la teva ubicació a través de fonts de xarxa com les antenes de telefonia mòbil i les xares Wi-Fi, però només si l'aplicació està en primer pla. Aquests serveis d'ubicació han d'estar activats i disponibles al teu telèfon per que l'aplicació els pugui fer servir.",
        "permdesc_accessDrmCertificates": "Permet que una aplicació proporcioni i faci servir la gestió de drets digitals (DRM, \"Digital Rights Management\"). Les aplicacions normals no haurien de necessitar aquest permís.",
        "permdesc_accessFineLocation": "Aquesta aplicació només pot tenir accés a la teva ubicació quan està en primer pla. Aquests serveis d'ubicació han d'estar activats i disponibles al teu telèfon per que l'aplicació els pugui utilitzar. Això podria augmentar el consum de la bateria.",
        "permdesc_accessImsCallService": "Permet que l'aplicació faci servir el servei IMS (\"IP Multimedia Subsystem\", Subsistema Multimèdia IP) per realitzar trucades sense la teva intervenció.",
        "permdesc_accessLocationExtraCommands": "Permet que l'aplicació tingui accés a altres ordres del proveïdor d'ubicació. Això podria permetre que l'aplicació interferís en el funcionament del GPS o d'altres fonts d'ubicació.",
        "permdesc_accessNetworkConditions": "Permet que una aplicació pugui detectar canvis en l'estat de la xarxa. No hauria de ser necessai en aplicacions normals.",
        "permdesc_accessNetworkState": "Permet que l'aplicació pugui veure informació sobre les connexions de la xarxa (quines xarxes es detecten i a quines es connecten).",
        "permdesc_accessNotifications": "Permet que l'aplicació recuperi, examini i esborri notificacions, incloses les que provenen d'altres aplicacions.",
        "permdesc_accessWifiState": "Permet que l'aplicació vegui informació sobre la conexió Wi-Fi (si la conexió Wi-Fi està habilitada i el nom dels dispositius que estàn connectats a la xarxa Wi-Fi).",
        "permdesc_accessWimaxState": "Permet que l'aplicació determini si la WiMAX (\"Worldwide Interoperability for Microwave Access\", en català \"inter-operabilitat mundial per accés per microones\") està habilitada i que obtingui informació sobre les xarxes WiMAX que estàn connectades.",
        "permdesc_access_notification_policy": "Permet que l'aplicació llegeixi i modifiqui la configuració de No molestar.",
        "permdesc_activityRecognition": "Aquesta aplicació pot reconèixer la teva activitat física.",
        "permdesc_addVoicemail": "Permet que l'aplicació afegeixi missatges a la safata d'entrada de la bústia de veu.",
        "permdesc_answerPhoneCalls": "Permet que l'aplicació respongui les trucades.",
        "permdesc_audioWrite": "Permet que l'aplicació modifiqui la teva biblioteca de música.",
        "permdesc_bindCarrierMessagingService": "Permet que es vinculi amb la interfície de nivell superior del servei de missatgeria d'un operador. No hauria de ser necessari en les aplicacions normals.",
        "permdesc_bindCarrierServices": "Permet que es vinculi amb serveis de l'operador. No hauria de ser necessari en les aplicacions normals.",
        "permdesc_bindConditionProviderService": "Permet que es vinculi amb la intefície de nivell superior d'un servei de proveïdor de condicions. No hauria de ser necessari en les aplicacions normals.",
        "permdesc_bindDreamService": "Permet que es vinculi amb la interfície de nivell superior d'un servie d'estalvi de pantalla. No hauria de ser necessari en les aplicacions normals.",
        "permdesc_bindNotificationListenerService": "Permet que es vinculi amb la interfície de nivell superior d'un servei de detecció de notificacions. No hauria de ser necessari en les aplicacions normals.",
        "permdesc_bind_connection_service": "Permet que l'aplicació interactuï amb serveis de telefonia per fer i rebre trucades.",
        "permdesc_bind_incall_service": "Permet que l'aplicació controli quan i com es mostra la pantalla de trucada.",
        "permdesc_bluetooth": "Permet que l'aplicació tingui accés a la configuració del Bluetooth del telèfon i que estableixi i accepti connexions amb els dispositius aparellats.",
        "permdesc_bluetoothAdmin": "Permet que l'aplicació configuri el telèfon Bluetooth local i que detecti dispositius remots i es connecti amb ells.",
        "permdesc_bodySensors": "Permet que l'aplicació tingui accés a les dades dels sensors que controlen la teva condició física, com ara la freqüència cardíaca.",
        "permdesc_broadcastSticky": "Permet que l'aplicació enviï emissions que romanen en el dispositiu una vegada l'emissió ha finalitzat. Un ús excessiu podria alentir el funcionament del telèfon o tornar-lo inestable al utilitzar massa memòria.",
        "permdesc_callCompanionApp": "Permet que l'aplicació vegui i controli les trucades entrants del dispositiu. Això inclou informació com els números de les trucades i el seu estat.",
        "permdesc_callPhone": "Permet que l'aplicació realitzi trucades sense la intervenció de l'usuari, això pot donar lloc a trucades o recàrregues inesperades. Tingues present que les aplicacions no poden fer servir aquest servei per fer trucades a números d'emergència, però les aplicacions malintencionades poden causar despeses adicionals al fer trucades sense el teu consentiment.",
        "permdesc_camera": "Aquesta aplicació pot fer fotografies i enregistrar vídeos amb la càmera en qualsevol moment.",
        "permdesc_changeNetworkState": "Permet que l'aplicació modifiqui l'estat de la connectivitat de la xarxa.",
        "permdesc_changeTetherState": "Permet que l'aplicació canviï l'estat de la connectivitat de l'ancoratge a xarxa.",
        "permdesc_changeWifiMulticastState": "Permet que l'aplicació rebi paquets enviats a tots els dispositius d'una xarxa Wi-Fi que facin servir direccions de difusió selectiva, no tan sols al teu telèfon. Fa servir més bateria que el mode de no difusió selectiva.",
        "permdesc_changeWifiState": "Permet que l'aplicació es connecti a punts d'accés Wi-Fi i s'en desconecti i que realitzi canvis en la configuració de les xarxes Wi-Fi del dispositiu.",
        "permdesc_changeWimaxState": "Permet que l'aplicació conneci i desconnecti el telèfon a xarxes WiMAX.",
        "permdesc_connection_manager": "Permet que l'aplicació gestioni les connexions de telecomunicacions.",
        "permdesc_control_incall_experience": "Permet que l'aplicació proporcioni una experiència d'usuari de trucada.",
        "permdesc_createNetworkSockets": "Permet que l'aplicació creï sockets d'internet i utilitzi protocols de xarxa personalitzats. El navegador i altres aplicacions proporcionen els medis necessaris per enviar les dades a internet, pel que no és necessari utilitzar aquest permís en aquest cas.",
        "permdesc_disableKeyguard": "Permet que l'aplicació deshabiliti el bloqueig del teclat i qualsevol protecció amb contrassenya associada. Per exemple, el telèfon pot deshabilitar el bloqueig del teclat quan es rep una trucada i pot tornar-lo a habilitar quan la trucada finalitza.",
        "permdesc_enableCarMode": "Permet que l'aplicació habiliti el mode cotxe.",
        "permdesc_expandStatusBar": "Permet que l'aplicació expandeixi o contregui la barra d'estat.",
        "permdesc_foregroundService": "Permet que l'aplicació utilitzi serveis en prmer pla.",
        "permdesc_getAccounts": "Permet que l'aplicació obtingui una llista de comptes reconeguts pel telèfon, entre els què es poden incloure els comptes creats per les aplicacions que hagis instal·lat.",
        "permdesc_getPackageSize": "Permet que l'aplicació recuperi la mida dels codis, les dades i les memòries cau",
        "permdesc_getTasks": "Permet que l'aplicació recuperi informació sobre les tasques que s'estan executant en aquest moment o que s'hagin executat recentment. L'aplicació pot utilitzar aquest permís per descobrir informació sobre quines aplicacions es fan servir en el dispositiu.",
        "permdesc_handoverStatus": "Permet que aquesta aplicació rebi informació sobre les transferències actuals d'Android Beam",
        "permdesc_imagesWrite": "Permet que l'aplicació modifiqui la teva galeria de fotos.",
        "permdesc_install_shortcut": "Permet que una aplicació afegeixi accessos directes a la pantalla d'inici sense l'intervenció de l'usuari.",
        "permdesc_invokeCarrierSetup": "Permet executar l'aplicació de configuració proporcionada per l'operador. No hauria de ser necessari per aplicacions normals.",
        "permdesc_killBackgroundProcesses": "Permet que l'aplicació interrompi processos en segon pla d'altres aplicacions i, per tant, pot fer que aquelles aplicacions deixin d'executar-se.",
        "permdesc_manageFace": "Permet que l'aplicació utilitzi mètodes per afegir i suprimir plantilles de cares pel seu ús.",
        "permdesc_manageFingerprint": "Permet que l'aplicació invoqui mètodes per afegir i suprimit plantilles d'empremptes digitals i utilitzar-les.",
        "permdesc_manageNetworkPolicy": "Permet que l'aplicació administri polítiques de xarxa i defineixi regles específiques de l'aplicació.",
        "permdesc_manageOwnCalls": "Permet que l'aplicació redireccioni les teves trucades cap el sistema per millorar-ne la qualitat.",
        "permdesc_manageProfileAndDeviceOwners": "Permet que les aplicacions estableixin els propietaris del perfil i del dispositiu.",
        "permdesc_mediaLocation": "Permet que l'aplicació llegeixi les ubicacions de la teva biblioteca multimèdia.",
        "permdesc_modifyAudioSettings": "Permet que l'aplicació modifiqui la configuració d'àudio global (per exemple, el volúm i l'altaveu de sortida).",
        "permdesc_modifyNetworkAccounting": "Permet que l'aplicació modifiqui com es registra l'ús de la xarxa en relació amb les aplicacions. Les aplicacions normals no han d'utilitzar aquest permís.",
        "permdesc_nfc": "Permet que l'aplicació es comuniqui amb lectors, targetes i etiquetes de Comunicació de camp proper (NFC).",
        "permdesc_persistentActivity": "Permet que l'aplicació faci que algunes de les seves parts es mantinguin a la memòria. Això podria limitar la quantitat de memòria disponible per a altres aplicacions i alentir el telèfon.",
        "permdesc_processOutgoingCalls": "Permet que l'aplicació vegui el número que es marca al realitzar una trucada amb l'opció de redirigir la trucada a un altre número o cancel·lar la trucada.",
        "permdesc_readCalendar": "Aquesta aplicació pot llegir els esdeveniments del calendari emmagatzemats al teu telèfon i compartir o guardar les dades del teu calendari.",
        "permdesc_readCallLog": "Aquesta aplicació pot llegir el teu historial de trucades.",
        "permdesc_readCellBroadcasts": "Permet que l'aplicació llegeixi missatges de difusió mòbil que hagi rebut el dispositiu. Les altertes de difusió mòbil s'envien a algunes ubicacions per avisar de situacions d'emergència. És possible que les aplicacions malintencionades interfereixin en el rendiment o el funcionament del dispositiu si es rep una altera de difusió mòbil d'emergència.",
        "permgroupdesc_activityRecognition": "accedir a la teva activitat física",
        "permgroupdesc_calendar": "accedeixi al teu calendari",
        "permgroupdesc_calllog": "llegeixi i editi el registre de trucades del telèfon",
        "permgroupdesc_camera": "faci fotos i gravi vídeos",
        "permgroupdesc_contacts": "accedeixi als teus contactes",
        "permgroupdesc_location": "accedeixi a la ubicació d'aquest dispositiu",
        "permgroupdesc_microphone": "gravi àudio",
        "permgroupdesc_phone": "faci i gestioni trucades",
        "permgroupdesc_sensors": "accedeixi a les dades dels sensors sobre les teves constants vitals",
        "permgroupdesc_sms": "enviï i vegui missatges SMS",
        "permgroupdesc_storage": "accedeixi a les fotos, al contingut multimèdia i als fitxers del dispositiu",
        "permgrouplab_activityRecognition": "Activitat física",
        "permgrouplab_calendar": "Calendari",
        "permgrouplab_calllog": "Registres de trucades",
        "permgrouplab_camera": "Càmera",
        "permgrouplab_contacts": "Contactes",
        "permgrouplab_location": "Ubicació",
        "permgrouplab_microphone": "Micròfon",
        "permgrouplab_phone": "Telèfon",
        "permgrouplab_sensors": "Sensors corporals",
        "permgrouplab_sms": "SMS",
        "permgrouplab_storage": "Emmagatzematge",
        "permgrouprequest_activityRecognition": "Permetre a l'aplicació fer un seguiment de la teva activitat.",
        "permgrouprequest_calendar": "Vols permetre que <b></b>",
        "permgrouprequest_calllog": "Vols permetre que <b></b>",
        "permgrouprequest_camera": "Vols permetre que <b></b>",
        "permgrouprequest_contacts": "Vols permetre que <b></b>",
        "permgrouprequest_location": "Vols permetre que <b></b>",
        "permgrouprequest_microphone": "Vols permetre que <b></b>",
        "permgrouprequest_phone": "Vols permetre que <b></b>",
        "permgrouprequest_sensors": "Vols permetre que <b></b>",
        "permgrouprequest_sms": "Vols permetre que <b></b>",
        "permgrouprequest_storage": "Vols permetre que <b></b>",
        "permgrouprequestdetail_location": "L'aplicació només podrà tenir accés a la ubicació mentre la estiguis fent servir",
        "permlab_acceptHandover": "continui una trucada d'una altra aplicació",
        "permlab_accessBackgroundLocation": "accedir a la ubicació en segon pla",
        "permlab_accessCoarseLocation": "accedeixi a la ubicació aproximada (mitjançant la xarxa) només en primer pla",
        "permlab_accessDrmCertificates": "accedeixi als certificats DRM",
        "permlab_accessFineLocation": "accedeixi a la ubicació exacta només en primer pla",
        "permlab_accessImsCallService": "accedeixi al servei de trucades IMS",
        "permlab_accessLocationExtraCommands": "accedeixi a ordres de proveïdor d'ubicació addicional",
        "permlab_accessNetworkConditions": "detecti canvis en l'estat de la xarxa",
        "permlab_accessNetworkState": "vegui connexions de xarxa",
        "permlab_accessNotifications": "accedeixi a les notificacions",
        "permlab_accessWifiState": "vegui les connexions Wi-Fi",
        "permlab_accessWimaxState": "es connecti i es desconnecti de la xarxa WiMAX",
        "permlab_access_notification_policy": "accedeixi a No molestar",
        "permlab_activityRecognition": "reconeixi activitat física",
        "permlab_addVoicemail": "afegeixi bústia de veu",
        "permlab_answerPhoneCalls": "respongui trucades",
        "permlab_audioWrite": "modifiqui la teva biblioteca de música",
        "permlab_bindCarrierMessagingService": "vinculi amb el servei de missatgeria d'un operador",
        "permlab_bindCarrierServices": "vinculi amb els serveis d'operador",
        "permlab_bindConditionProviderService": "vinculi amb un servei de proveïdor de condicions",
        "permlab_bindDreamService": "vinculi amb un servei d'estalvi de pantalla",
        "permlab_bindNotificationListenerService": "vinculi amb un servei de detecció de notificacions",
        "permlab_bind_connection_service": "interactuï amb serveis de telefonia",
        "permlab_bind_incall_service": "interactuï amb la pantalla de trucada",
        "permlab_bluetooth": "s'aparelli amb dispositius Bluetooth",
        "permlab_bluetoothAdmin": "accedeixi als ajustaments de Bluetooth",
        "permlab_bodySensors": "accedeixi als sensors corporals (com ara els monitors de freqüència cardíaca)",
        "permlab_broadcastSticky": "enviï emissió recurrent",
        "permlab_callCompanionApp": "vegui i gestioni trucades des del sistema.",
        "permlab_callPhone": "truqui directament a números de telèfon",
        "permlab_camera": "faci fotos i vídeos",
        "permlab_changeNetworkState": "canviï la connectivitat de la xarxa",
        "permlab_changeTetherState": "canviï la connectivitat de l'encoratge a xarxa",
        "permlab_changeWifiMulticastState": "permeti la recepció de difusió selectiva Wi-Fi",
        "permlab_changeWifiState": "es connecti i es desconnecti de xarxes Wi-Fi",
        "permlab_changeWimaxState": "canviï l'estat del WiMAX",
        "permlab_connection_manager": "gestioni connexions de telecomunicacions",
        "permlab_control_incall_experience": "ofereixi una experiència d'usuari de trucada",
        "permlab_createNetworkSockets": "tingui accés complert a la xarxa",
        "permlab_disableKeyguard": "deshabiliti el bloqueig de pantalla",
        "permlab_enableCarMode": "habiliti el mode cotxe",
        "permlab_expandStatusBar": "expandeixi/contragui la barra d'estat",
        "permlab_foregroundService": "executi el servei en primer pla",
        "permlab_getAccounts": "busqui comptes en el dispositiu",
        "permlab_getPackageSize": "mesuri l'espai d'emmagatzematge de l'aplicació",
        "permlab_getTasks": "recuperi aplicacions en execució",
        "permlab_handoverStatus": "rebi l'estat de transferència d'Android Beam",
        "permlab_imagesWrite": "modifiqui la teva galeria de fotos",
        "permlab_install_shortcut": "instal·li accessos directes",
        "permlab_invokeCarrierSetup": "executi l'aplicació de configuració proporcionada per l'operador",
        "permlab_killBackgroundProcesses": "tanqui altres aplicacions",
        "permlab_manageFace": "gestioni el maquinari de reconeixement facial",
        "permlab_manageFingerprint": "administri el maquinari d'emprempta digital",
        "permlab_manageNetworkPolicy": "administri la política de xarxa",
        "permlab_manageOwnCalls": "direccioni trucades des del sistema",
        "permlab_manageProfileAndDeviceOwners": "administri propietaris del perfil i del dispositiu",
        "permlab_mediaLocation": "llegeixi les ubicacions de la teva col·lecció de contingut multimèdia",
        "permlab_modifyAudioSettings": "canviï la configuració d'àudio",
        "permlab_modifyNetworkAccounting": "modifiqui el càclcul d'ús de xarxa",
        "permlab_nfc": "controli la comunicació de camp proper (NFC)",
        "permlab_persistentActivity": "faci que l'aplicació sempre s'estigui executant",
        "permlab_processOutgoingCalls": "redirigeixi trucades sortints",
        "permlab_readCalendar": "llegeixi esdeveniments i detalls dels calendari",
        "permlab_readCallLog": "llegeixi el registre de trucades",
        "permlab_readCellBroadcasts": "llegeixi missatges de difusió mòbil",
        "permlab_readContacts": "vegui els teus contactes",
        "permlab_readHistoryBookmarks": "vegui el teu historial i les teves adreçes d'interès web",
        "permlab_readInstallSessions": "llegeixi les sessions d'instal·lació",
        "permlab_readNetworkUsageHistory": "llegeixi l'ús de l'historial de xarxa",
        "permlab_readPhoneNumbers": "llegeixi números de telèfon",
        "permlab_readPhoneState": "llegeixi la identitat i l'estat del telèfon",
        "permlab_readSms": "llegeixi els teus missatges de text (SMS o MMS)",
        "permlab_readSyncSettings": "llegeixi la configuració de sincronització",
        "permlab_readSyncStats": "llegeixi estadístiques de sincronització",
        "permlab_receiveBootCompleted": "s'executi a l'inici",
        "permlab_receiveMms": "rebi missatges de text (MMS)",
        "permlab_receiveSms": "rebi missatges de text (SMS)",
        "permlab_receiveWapPush": "rebi missatges de text (WAP)",
        "permlab_recordAudio": "gravi àudio",
        "permlab_register_call_provider": "registri connexions de telecomunicacions noves",
        "permlab_register_sim_subscription": "registri connexions de SIM de telecomunicacions noves",
        "permlab_removeDrmCertificates": "suprimeixi certificats DRM",
        "permlab_reorderTasks": "reordeni aplicacions en execució",
        "permlab_requestDeletePackages": "soliciti l'eliminació de paquets",
        "permlab_requestIgnoreBatteryOptimizations": "soliciti permís per ignorar les optimitzacions de la bateria",
        "permlab_requestInstallPackages": "soliciti la instal·lació de paquets",
        "permlab_requestPasswordComplexity": "soliciti complexitat de bloqueig de pantalla",
        "permlab_route_media_output": "dirigeixi la sortida de mèdia",
        "permlab_runInBackground": "s'executi en segon pla",
        "permlab_sdcardRead": "llegeixi el contingut d'emmagatzematge compartit",
        "permlab_sdcardWrite": "editi/suprimeixi el contingut d'emmagatxemantge compartit",
        "permlab_sendSms": "enviï i llegeixi missatges SMS",
        "permlab_setAlarm": "estableixi una alarma",
        "permlab_setInputCalibration": "canviï la calibració del dispositiu d'entrada",
        "permlab_setTimeZone": "estableixi la zona horària",
        "permlab_setWallpaper": "estableixi fons de pantalla",
        "permlab_setWallpaperHints": "ajusti la mida del fons de pantalla",
        "permlab_sim_communication": "enviï ordres a la targeta SIM",
        "permlab_startViewPermissionUsage": "iniciï l'ús del permís de visualització",
        "permlab_statusBar": "deshabiliti o modifiqui la barra d'estat",
        "permlab_statusBarService": "apareixi a la barra d'estat"
    },
    "sidebars": {
        "lang": {
            "change": "Canvia"
        }
    }
}
